id;nro_prestamo;valor;cuotas_qty;date_authorization;date_delivered;creation_date;last_updated_date
1;50801;30477;51564;2020-02-03;2020-02-03;2020-02-03;2020-02-03
2;6635;12274;32023;2020-02-03;2020-02-03;2020-02-03;2020-02-03
3;11337;70003;99369;2020-02-03;2020-02-03;2020-02-03;2020-02-03
4;95019;550;51523;2020-02-03;2020-02-03;2020-02-03;2020-02-03
5;43375;10795;61608;2020-02-03;2020-02-03;2020-02-03;2020-02-02
6;35091;72169;44231;2020-02-03;2020-02-02;2020-02-03;2020-02-03
7;98642;98083;37883;2020-02-03;2020-02-03;2020-02-03;2020-02-02
8;557;89498;89336;2020-02-03;2020-02-03;2020-02-03;2020-02-02
9;62061;76547;94341;2020-02-02;2020-02-03;2020-02-03;2020-02-03
10;56553;7283;74535;2020-02-03;2020-02-03;2020-02-03;2020-02-03
