{
    "name": "Prestamo",
    "fields": [
        {
            "fieldName": "nroPrestamo",
            "fieldType": "Long",
            "fieldValidateRules": [
                "required"
            ]
        },
        {
            "fieldName": "valor",
            "fieldType": "Double",
            "fieldValidateRules": [
                "required"
            ]
        },
        {
            "fieldName": "cuotasQty",
            "fieldType": "Integer"
        },
        {
            "fieldName": "dateAuthorization",
            "fieldType": "LocalDate"
        },
        {
            "fieldName": "dateDelivered",
            "fieldType": "LocalDate"
        },
        {
            "fieldName": "creationDate",
            "fieldType": "LocalDate"
        },
        {
            "fieldName": "lastUpdatedDate",
            "fieldType": "LocalDate"
        }
    ],
    "relationships": [],
    "changelogDate": "20200203192202",
    "entityTableName": "prestamo",
    "dto": "no",
    "pagination": "infinite-scroll",
    "service": "no",
    "jpaMetamodelFiltering": false,
    "fluentMethods": true,
    "readOnly": false,
    "clientRootFolder": "",
    "applications": "*"
}