{
    "name": "Solicitante",
    "fields": [
        {
            "fieldName": "dni",
            "fieldType": "String"
        },
        {
            "fieldName": "name",
            "fieldType": "String"
        },
        {
            "fieldName": "lastName",
            "fieldType": "String"
        },
        {
            "fieldName": "telHome",
            "fieldType": "String"
        },
        {
            "fieldName": "telMovile",
            "fieldType": "String"
        }
    ],
    "relationships": [
        {
            "relationshipType": "many-to-one",
            "otherEntityName": "prestamo",
            "otherEntityRelationshipName": "solicitante",
            "relationshipName": "prestamos",
            "otherEntityField": "id"
        }
    ],
    "changelogDate": "20200203192203",
    "entityTableName": "solicitante",
    "dto": "no",
    "pagination": "no",
    "service": "no",
    "jpaMetamodelFiltering": false,
    "fluentMethods": true,
    "readOnly": false,
    "clientRootFolder": "",
    "applications": "*"
}